###############################.......#################################
#.....................................................................#
#################################.....#################################
#...#...#...#...#...#...#...#.."#.....#...#...#...#...#"..#...#...#...#
#...#...#...#...#...#...#...#...".....#...#...#...#...""..#...#...#...#
#...#...#...#...#...#...#...#...#.....#...#...#...#..."...#...#...#...#
#...#...#...#...#...#...#...#.........#...#...#...#...#...#...#...#...#
##+###+###+###+###+###+###+#####......##+###+###+##""."#+###+###+###+##
.......................................................................
.......................................................................
##+###+###+###+###+###+###+###"#......."####+###+###+###+###+#""""##+##
#...#...#...#...#...#...#...#...#.........#...#...#...#...#...""".#...#
#...#...#...#...#...#...#...#...#.........#...#...#...#...#.."""..#...#
#...#...#...#...#...#...#...#...#.........#...#...#...#...#...#...#...#
#...#...#...#...#...#...#...#...#.........#...#...#...#...#...#...#...#
################################........###############################
#.....................................................................#
#.....................................................................#
#################################.....#################################
#...#...#...#...#...#...#...#.."#.....#...#...#...#...#"..#...#...#...#
#...#...#...#...#...#...#...#...".....#...#...#...#...""..#...#...#...#
#...#...#...#...#...#...#...#...#.....#...#...#...#..."...#...#...#...#
#...#...#...#...#...#...#...#.........#...#...#...#...#...#...#...#...#
##+###+###+###+###+###+###+#####......##+###+###+##""."#+###+###+###+##
.......................................................................
.......................................................................
###############################.......#################################


{
	"level": "Game.Level.Village",
	"light": [60, 60, 60],
	"sight": 6,
	"radiation": 4.2,
	"warp": {
        "north": "deserted-cells",
        "east": "west",
        "west": "east"
	},
	"#": {
		"cell": "wall"
	},
	"+": {
		"cell": {
			"type": "door",
			"closed": 0
		}
	},
	"\"": {
		"cell": {
			"type": "rubble",
			"name": "rubble"
		}
	},
	".": {
		"cell": "floor"
	},
	"'": {
		"cell": "highgrass"
	},
	"r": {
		"cell": "ground",
		"being": "rat"
	}
}
