#.....................................###......................................#
#.....................................###......................................#
#.....................................###......................................#
#.....................................###......................................#
#.....................................###......................................#
#.....................................###......................................#
#.....................................###......................................#
#.....................................###......................................#
#.....................................###......................................#
#.....#......................#........###......................................#
#.....#......................#........###......................................#
#.....#......................#........###......................................#
#.....#......................#........###......................................#
#.....#......................#........###......................................#
#.....#......................#........###......................................#
#.....#......................#........###......................................#
#.....#......................#........###......................................#
#......##..................##.........###......................................#
#........##..............##...........###......................................#
#..........##..........##.............###......................................#
#............##......##...............###......................................#
#..............==..==.................###......................................#
#................==...................###......................................#
#.....................................###......................................#
#########+++############################################+++#####################

?????????????????????????????.??????????????????????????????????????????????????
?????????????????????????????.??????????????????????????????????????????????????
????????????????????????????????????????????????????????????????????????????????
????????????????????????????????????????????????????????????????????????????????
????????????????????????????????????????.???????????????????????????????????????
????????????????????????????????????????.???????????????????????????????????????
????????????????????????????????????????.???????????????????????????????????????


{
	"level": "Game.Level.Village",
	"light": [60, 20, 20],
	"sight": 10,
	"radiation": 15.2
}